{
    "content_scripts": [
        "libraries/jquery-2.1.1.min.js", 
        "libraries/jquery-ui.min.js", 
        "extension/extension.js"
    ], 
    "description": "noHTML", 
    "creator": "noHTML", 
    "framework_version": "1.7.0 c18939a5e518", 
    "developer_id": "YOUR_SAFARI_DEVELOPER_ID", 
    "background_scripts": [
        "background.js", 
        "libraries/jquery-2.1.1.min.js"
    ], 
    "homepage_url": "http://google.com", 
    "version": "0.9.0", 
    "options_page": "options/options.html", 
    "framework_package_id": "dev", 
    "browser_button": {
        "caption": "noHTML", 
        "tooltipText": "noHTML", 
        "icon": "icons/button.png"
    }, 
    "id": "com.kangoextensions.nohtml", 
    "name": "nohtml"
}